sevens.vcd
$date
  Sat Dec 14 02:57:01 2013
$end
$version
  GHDL v0
$end
$timescale
  1 fs
$end
$var reg 1 ! b1 $end
$var reg 1 " b2 $end
$var reg 1 # b3 $end
$var reg 1 $ b4 $end
$var reg 1 % clk $end
$var reg 7 & sseg[0:6] $end
$var reg 4 ' anodes[3:0] $end
$var reg 1 ( reset $end
$scope module sevensegns_0 $end
$var reg 1 ) b1 $end
$var reg 1 * b2 $end
$var reg 1 + b3 $end
$var reg 1 , b4 $end
$var reg 1 - clk $end
$var reg 7 . sseg[0:6] $end
$var reg 4 / anodes[3:0] $end
$var reg 1 0 reset $end
$var reg 4 1 bcd1[3:0] $end
$var reg 4 2 bcd2[3:0] $end
$var reg 4 3 bcd3[3:0] $end
$var reg 4 4 bcd4[3:0] $end
$var reg 1 5 clk2 $end
$var reg 4 6 pushbuttons[3:0] $end
$var reg 4 7 db_pushbuttons[3:0] $end
$var reg 2 8 counter[1:0] $end
$scope module db $end
$var reg 1 9 cclk $end
$var reg 4 : inp[3:0] $end
$var reg 1 ; cclr $end
$var reg 4 < db[3:0] $end
$var reg 4 = delay1[3:0] $end
$var reg 4 > delay2[3:0] $end
$var reg 4 ? delay3[3:0] $end
$upscope $end
$upscope $end
$enddefinitions $end
#0
0!
0"
0#
0$
1%
b0000001 &
b1110 '
1(
0)
0*
0+
0,
1-
b0000001 .
b1110 /
10
b0000 1
b0000 2
b0000 3
b0000 4
05
b0000 6
b0000 7
b00 8
09
b0000 :
1;
b0000 <
b0000 =
b0000 >
b0000 ?
#1000000
0%
0-
#2000000
1%
1-
15
19
#3000000
0%
0(
0-
00
05
09
0;
#4000000
1%
b1101 '
1-
b1101 /
15
b01 8
19
#5000000
0%
0-
05
09
#6000000
1!
1%
b1011 '
1)
1-
b1011 /
15
b0001 6
b10 8
19
b0001 :
b0001 =
#7000000
0%
0-
05
09
#8000000
0!
1%
b0111 '
0)
1-
b0111 /
15
b0000 6
b11 8
19
b0000 :
b0000 =
b0001 >
#9000000
1!
0%
1)
0-
05
b0001 6
09
b0001 :
#10000000
1%
b1110 '
1-
b1110 /
15
b00 8
19
b0001 =
b0000 >
b0001 ?
#11000000
0!
0%
0)
0-
05
b0000 6
09
b0000 :
#12000000
1!
1%
b1101 '
1)
1-
b1101 /
15
b0001 6
b01 8
19
b0001 :
b0001 >
b0000 ?
#13000000
0!
0%
0)
0-
05
b0000 6
09
b0000 :
#14000000
1!
1%
b1011 '
1)
1-
b1011 /
15
b0001 6
b0001 7
b10 8
19
b0001 :
b0001 <
b0001 ?
#15000000
0!
0%
0)
0-
05
b0000 6
09
b0000 :
#16000000
1!
1%
b0111 '
1)
1-
b0111 /
b0001 1
15
b0001 6
b11 8
19
b0001 :
#17000000
0!
0%
0)
0-
05
b0000 6
09
b0000 :
#18000000
1%
b1001111 &
b1110 '
1-
b1001111 .
b1110 /
15
b0000 7
b00 8
19
b0000 <
b0000 =
#19000000
1!
0%
1)
0-
05
b0001 6
09
b0001 :
#20000000
0!
1%
b0000001 &
b1101 '
0)
1-
b0000001 .
b1101 /
15
b0000 6
b01 8
19
b0000 :
b0000 >
#21000000
1!
0%
1)
0-
05
b0001 6
09
b0001 :
#22000000
0!
1%
b1011 '
0)
1-
b1011 /
15
b0000 6
b10 8
19
b0000 :
b0000 ?
#23000000
1!
0%
1)
0-
05
b0001 6
09
b0001 :
#24000000
0!
1%
b0111 '
0)
1-
b0111 /
15
b0000 6
b11 8
19
b0000 :
#25000000
1!
0%
1)
0-
05
b0001 6
09
b0001 :
#26000000
0!
1%
b1001111 &
b1110 '
0)
1-
b1001111 .
b1110 /
15
b0000 6
b00 8
19
b0000 :
#27000000
1!
0%
1)
0-
05
b0001 6
09
b0001 :
#28000000
0!
1%
b0000001 &
b1101 '
0)
1-
b0000001 .
b1101 /
15
b0000 6
b01 8
19
b0000 :
#29000000
1!
0%
1)
0-
05
b0001 6
09
b0001 :
#30000000
0!
1%
b1011 '
0)
1-
b1011 /
15
b0000 6
b10 8
19
b0000 :
#31000000
0%
0-
05
09
#32000000
1%
b0111 '
1-
b0111 /
15
b11 8
19
#33000000
0%
0-
05
09
#34000000
1%
b1001111 &
b1110 '
1-
b1001111 .
b1110 /
15
b00 8
19
#35000000
0%
0-
05
09
#36000000
1%
b0000001 &
b1101 '
1-
b0000001 .
b1101 /
15
b01 8
19
#37000000
0%
0-
05
09
#38000000
1%
b1011 '
1-
b1011 /
15
b10 8
19
#39000000
0%
0-
05
09
#40000000
1"
1%
b0111 '
1*
1-
b0111 /
15
b0010 6
b11 8
19
b0010 :
b0010 =
#41000000
0%
0-
05
09
#42000000
1%
b1001111 &
b1110 '
1-
b1001111 .
b1110 /
15
b00 8
19
b0010 >
#43000000
0%
0-
05
09
#44000000
1%
b0000001 &
b1101 '
1-
b0000001 .
b1101 /
15
b0010 7
b01 8
19
b0010 <
b0010 ?
#45000000
0%
0-
05
09
#46000000
0"
1%
b1011 '
0*
1-
b1011 /
b0001 2
15
b0000 6
b0000 7
b10 8
19
b0000 :
b0000 <
b0000 =
#47000000
1"
0%
1*
0-
05
b0010 6
09
b0010 :
#48000000
1%
b0111 '
1-
b0111 /
15
b11 8
19
b0010 =
b0000 >
#49000000
0%
0-
05
09
#50000000
1%
b1001111 &
b1110 '
1-
b1001111 .
b1110 /
15
b00 8
19
b0010 >
b0000 ?
#51000000
0%
0-
05
09
#52000000
0"
1%
b1101 '
0*
1-
b1101 /
15
b0000 6
b01 8
19
b0000 :
b0000 =
b0010 ?
#53000000
1"
0%
1*
0-
05
b0010 6
09
b0010 :
#54000000
1%
b0000001 &
b1011 '
1-
b0000001 .
b1011 /
15
b10 8
19
b0010 =
b0000 >
#55000000
0%
0-
05
09
#56000000
1%
b0111 '
1-
b0111 /
15
b11 8
19
b0010 >
b0000 ?
#57000000
0%
0-
05
09
#58000000
0"
1%
b1001111 &
b1110 '
0*
1-
b1001111 .
b1110 /
15
b0000 6
b00 8
19
b0000 :
b0000 =
b0010 ?
#59000000
1"
0%
1*
0-
05
b0010 6
09
b0010 :
#60000000
0"
1%
b1101 '
0*
1-
b1101 /
15
b0000 6
b01 8
19
b0000 :
b0000 >
#61000000
0%
0-
05
09
#62000000
1"
1%
b0000001 &
b1011 '
1*
1-
b0000001 .
b1011 /
15
b0010 6
b10 8
19
b0010 :
b0010 =
b0000 ?
#63000000
0"
0%
0*
0-
05
b0000 6
09
b0000 :
#64000000
1%
b0111 '
1-
b0111 /
15
b11 8
19
b0000 =
b0010 >
#65000000
0%
0-
05
09
#66000000
1%
b1001111 &
b1110 '
1-
b1001111 .
b1110 /
15
b00 8
19
b0000 >
b0010 ?
#67000000
0%
0-
05
09
#68000000
1#
1%
b1101 '
1+
1-
b1101 /
15
b0100 6
b01 8
19
b0100 :
b0100 =
b0000 ?
#69000000
0%
0-
05
09
#70000000
1%
b0000001 &
b1011 '
1-
b0000001 .
b1011 /
15
b10 8
19
b0100 >
#71000000
0%
0-
05
09
#72000000
1%
b0111 '
1-
b0111 /
15
b0100 7
b11 8
19
b0100 <
b0100 ?
#73000000
0#
0%
0+
0-
05
b0000 6
09
b0000 :
#74000000
1%
b1001111 &
b1110 '
1-
b1001111 .
b1110 /
b0001 3
15
b0000 7
b00 8
19
b0000 <
b0000 =
#75000000
1#
0%
1+
0-
05
b0100 6
09
b0100 :
#76000000
1%
b1101 '
1-
b1101 /
15
b01 8
19
b0100 =
b0000 >
#77000000
0%
0-
05
09
#78000000
1%
b1011 '
1-
b1011 /
15
b10 8
19
b0100 >
b0000 ?
#79000000
0%
0-
05
09
#80000000
1%
b0000001 &
b0111 '
1-
b0000001 .
b0111 /
15
b0100 7
b11 8
19
b0100 <
b0100 ?
#81000000
0#
0%
0+
0-
05
b0000 6
09
b0000 :
#82000000
1#
1%
b1001111 &
b1110 '
1+
1-
b1001111 .
b1110 /
15
b0100 6
b00 8
19
b0100 :
#83000000
0#
0%
0+
0-
05
b0000 6
09
b0000 :
#84000000
1#
1%
b1101 '
1+
1-
b1101 /
15
b0100 6
b01 8
19
b0100 :
#85000000
0%
0-
05
09
#86000000
1%
b1011 '
1-
b1011 /
15
b10 8
19
#87000000
0#
0%
0+
0-
05
b0000 6
09
b0000 :
#88000000
1%
b0000001 &
b0111 '
1-
b0000001 .
b0111 /
15
b0000 7
b11 8
19
b0000 <
b0000 =
#89000000
0%
0-
05
09
#90000000
1%
b1001111 &
b1110 '
1-
b1001111 .
b1110 /
15
b00 8
19
b0000 >
#91000000
1$
0%
1,
0-
05
b1000 6
09
b1000 :
#92000000
1%
b1101 '
1-
b1101 /
15
b01 8
19
b1000 =
b0000 ?
#93000000
0%
0-
05
09
#94000000
1%
b1011 '
1-
b1011 /
15
b10 8
19
b1000 >
#95000000
0$
0%
0,
0-
05
b0000 6
09
b0000 :
#96000000
1$
1%
b0000001 &
b0111 '
1,
1-
b0000001 .
b0111 /
15
b1000 6
b1000 7
b11 8
19
b1000 :
b1000 <
b1000 ?
#97000000
0%
0-
05
09
#98000000
1%
b1001111 &
b1110 '
1-
b1001111 .
b1110 /
b0001 4
15
b00 8
19
#99000000
0%
0-
05
09
#100000000
1%
b1101 '
1-
b1101 /
15
b01 8
19
#101000000
0%
0-
05
09
#102000000
1%
b1011 '
1-
b1011 /
15
b10 8
19
#103000000
0%
0-
05
09
#104000000
1%
b0111 '
1-
b0111 /
15
b11 8
19
#105000000
0$
0%
0,
0-
05
b0000 6
09
b0000 :
#106000000
1$
1%
b1110 '
1,
1-
b1110 /
15
b1000 6
b00 8
19
b1000 :
#107000000
0%
0-
05
09
#108000000
1%
b1101 '
1-
b1101 /
15
b01 8
19
#109000000
0%
0-
05
09
#110000000
1%
b1011 '
1-
b1011 /
15
b10 8
19
#111000000
0$
0%
0,
0-
05
b0000 6
09
b0000 :
#112000000
1%
b0111 '
1-
b0111 /
15
b0000 7
b11 8
19
b0000 <
b0000 =
#113000000
0%
0-
05
09
#114000000
1%
b1110 '
1-
b1110 /
15
b00 8
19
b0000 >
#115000000
0%
0-
05
09
#116000000
1%
b1101 '
1-
b1101 /
15
b01 8
19
b0000 ?
#117000000
0%
0-
05
09
#118000000
1%
b1011 '
1-
b1011 /
15
b10 8
19
#119000000
0%
0-
05
09
#120000000
1%
b0111 '
1-
b0111 /
15
b11 8
19
#121000000
0%
0-
05
09
#122000000
1%
b1110 '
1-
b1110 /
15
b00 8
19
#123000000
0%
0-
05
09
#124000000
1%
b1101 '
1-
b1101 /
15
b01 8
19
#125000000
0%
0-
05
09
#126000000
1%
b1011 '
1-
b1011 /
15
b10 8
19
#127000000
0%
0-
05
09
#128000000
1%
b0111 '
1-
b0111 /
15
b11 8
19
#129000000
0%
0-
05
09
#130000000
1%
b1110 '
1-
b1110 /
15
b00 8
19
#131000000
0%
0-
05
09
#132000000
1%
b1101 '
1-
b1101 /
15
b01 8
19
#133000000
0%
0-
05
09
#134000000
1%
b1011 '
1-
b1011 /
15
b10 8
19
#135000000
0%
0-
05
09
#136000000
1%
b0111 '
1-
b0111 /
15
b11 8
19
#137000000
0%
0-
05
09
#138000000
1%
b1110 '
1-
b1110 /
15
b00 8
19
#139000000
0%
0-
05
09
#140000000
1%
b1101 '
1-
b1101 /
15
b01 8
19
#141000000
0%
0-
05
09
#142000000
1%
b1011 '
1-
b1011 /
15
b10 8
19
#143000000
0%
0-
05
09
#144000000
1%
b0111 '
1-
b0111 /
15
b11 8
19
#145000000
0%
0-
05
09
#146000000
1%
b1110 '
1-
b1110 /
15
b00 8
19
#147000000
0%
0-
05
09
#148000000
1%
b1101 '
1-
b1101 /
15
b01 8
19
#149000000
0%
0-
05
09
#150000000
1%
b1011 '
1-
b1011 /
15
b10 8
19
#151000000
0%
0-
05
09
#152000000
1%
b0111 '
1-
b0111 /
15
b11 8
19
#153000000
0%
0-
05
09
#154000000
1%
b1110 '
1-
b1110 /
15
b00 8
19
#155000000
0%
0-
05
09
#156000000
1%
b1101 '
1-
b1101 /
15
b01 8
19
#157000000
0%
0-
05
09
#158000000
1%
b1011 '
1-
b1011 /
15
b10 8
19
#159000000
0%
0-
05
09
#160000000
1%
b0111 '
1-
b0111 /
15
b11 8
19
#161000000
0%
0-
05
09
#162000000
1%
b1110 '
1-
b1110 /
15
b00 8
19
#163000000
0%
0-
05
09
#164000000
1%
b1101 '
1-
b1101 /
15
b01 8
19
#165000000
0%
b0000001 &
1(
0-
b0000001 .
10
b0000 1
b0000 2
b0000 3
b0000 4
05
09
1;
